# Format: netid, week, Activity (Read/Watch/Do/Coding/...), title, time in minutes (e.g. 2 hours and 45 minutes would be recorded as 165)
# header: netid, week, task, title, minutes
# example row: pjm52, week1, Read, Bullet, 180


hf82,week1,read,bullet,60
hf82,week1,read,VisiCalc,50
hf82,week1,video, history of software,120
hf82,week1,code,square,50
hf82,week1,code,kwic,100
hf82,week1,code,TDDBE,300
